Final Project
…
Read Raw Data

Add MAKE_MODEL column to the raw data

Create Training and Testing Data

Page 1 - Summary Table

Summary Table

# A tibble: 3,315 x 9
# Groups:   MAKE_MODEL, DRIVETYP, DISPCLMT, TURBO_T [?]
   MAKE_MODEL DRIVETYP DISPCLMT TURBO_T SUPCHRGR_T fatals injuries
   <chr>      <chr>    <chr>    <chr>   <chr>       <int>    <int>
 1 ACURA_2.2 FWD      2.2      No      No              2        0
 2 ACURA_2.5 FWD      2.5      No      No              7        0
 3 ACURA_3.0 FWD      3        No      No              3        0
 4 ACURA_3.2 FWD      3.2      No      No              6        6
 5 ACURA_3.2 FWD      3.2      No      No             42       15
 6 ACURA_3.5 FWD      3.5      No      No              9        6
 7 ACURA_ILX  FWD      2        No      No              2        3
 8 ACURA_ILX  FWD      2.4      No      No              1        0
 9 ACURA_INT FWD      1.6      No      No              2        0
10 ACURA_INT FWD      1.8      No      No             50       20
# ... with 3,305 more rows, and 2 more variables: no_injury <int>,
#   count <int>
…
Page 4 - Logistic Regression

Logistic Regression Using 4 Variables

# A tibble: 425 x 5
   term                               estimate std.error statistic p.value
   <chr>                                 <dbl>     <dbl>     <dbl>   <dbl>
 1 (Intercept)                         0.231      0.132      1.75   0.0800
 2 DRIVETYP4RD                         0.0397     0.0433     0.915  0.360 
 3 DRIVETYPAWD                         0.00809    0.0355     0.228  0.820 
 4 DRIVETYPFWD                         0.0187     0.0329     0.568  0.570 
 5 DRIVETYPRWD                         0.0575     0.0421     1.37   0.172 
 6 TURBO_TTurbocharged with Intercoo  0.00886    0.0851     0.104  0.917 
 7 TURBO_TUnknown                      0.0652     0.163      0.400  0.689 
 8 TURBO_TYes                         -0.0242     0.0133    -1.82   0.0682
 9 SUPCHRGR_TSupercharged with Inter  0.114      0.136      0.838  0.402 
10 SUPCHRGR_TUnknown                  -0.321      0.321     -1.000  0.318 
# ... with 415 more rows
…
